…
You can sort `DataFrame`s (in ascending order only) faster than the `sort` function by using the `fsort` function. E.g.

```julia
using DataFrames
df = DataFrame(col = rand(1_000_000), col1 = rand(1_000_000), col2 = rand(1_000_000))

fsort(df, :col) # sort by `:col`
fsort(df, [:col1, :col2]) # sort by `:col1` and `:col2`
fsort!(df, :col) # sort by `:col` # sort in-place by `:col`
fsort!(df, [:col1, :col2]) # sort in-place by `:col1` and `:col2`
```

```
1000000×3 DataFrame
     Row │ col        col1        col2
         │ Float64    Float64     Float64
─────────┼──────────────────────────────────
       1 │ 0.811363   7.97813e-8  0.0531397
       2 │ 0.82789    1.09458e-6  0.839517
       3 │ 0.755735   2.31673e-6  0.73836
       4 │ 0.133499   2.53483e-6  0.100679
       5 │ 0.131827   3.3895e-6   0.792947
       6 │ 0.665072   4.03591e-6  0.290273
       7 │ 0.765728   4.26244e-6  0.321963
       8 │ 0.70778    4.43784e-6  0.575208
    ⋮    │     ⋮          ⋮           ⋮
  999994 │ 0.0464722  0.999992    0.65355
  999995 │ 0.738753   0.999992    0.588945
  999996 │ 0.0490022  0.999992    0.976147
  999997 │ 0.860753   0.999993    0.626292
  999998 │ 0.334551   0.999994    0.357504
  999999 │ 0.602822   0.999996    0.222439
 1000000 │ 0.501476   0.999999    0.582362
                         999985 rows omitted
```
…
